<?xml version="1.0" encoding="UTF-8"?>
<svg xmlns="http://www.w3.org/2000/svg" xmlns:xlink="http://www.w3.org/1999/xlink" width="15px" height="15px" viewBox="0 0 15 15" version="1.1">
<g id="surface1">
<path style="stroke:none;fill-rule:nonzero;fill:#fff;fill-opacity:1;" d="M 7.355469 13.773438 C 5.652344 15.417969 2.953125 15.40625 1.265625 13.75 C 0.457031 12.957031 0.00390625 11.875 0 10.746094 C -0.00390625 9.617188 0.441406 8.53125 1.242188 7.734375 L 6.597656 2.453125 L 7.355469 1.695312 L 8.121094 0.941406 C 9.390625 -0.3125 11.433594 -0.3125 12.703125 0.941406 C 13.3125 1.539062 13.65625 2.351562 13.65625 3.203125 C 13.65625 4.054688 13.3125 4.871094 12.703125 5.46875 L 11.941406 6.226562 L 11.175781 6.980469 L 8.496094 9.640625 L 7.535156 10.578125 L 5.828125 12.261719 C 4.984375 13.082031 3.644531 13.082031 2.800781 12.261719 C 2.398438 11.871094 2.171875 11.332031 2.167969 10.769531 C 2.164062 10.207031 2.382812 9.667969 2.777344 9.265625 L 3.535156 8.488281 L 4.476562 7.558594 L 5.4375 6.605469 L 6.589844 5.46875 L 7.5 4.582031 L 8.367188 3.726562 L 8.882812 3.214844 L 9.640625 3.960938 L 8.902344 4.675781 L 8.113281 5.453125 L 6.507812 7.039062 L 5.691406 7.855469 L 4.875 8.664062 L 4.285156 9.242188 L 3.535156 10 C 3.121094 10.417969 3.121094 11.09375 3.535156 11.507812 C 3.960938 11.921875 4.636719 11.921875 5.0625 11.507812 L 6.402344 10.183594 L 7.21875 9.378906 L 8.042969 8.570312 L 8.882812 7.738281 L 10.238281 6.40625 L 10.410156 6.234375 L 11.175781 5.476562 L 11.941406 4.722656 L 11.964844 4.699219 C 12.367188 4.300781 12.597656 3.757812 12.597656 3.191406 C 12.597656 2.625 12.367188 2.082031 11.964844 1.683594 C 11.117188 0.847656 9.757812 0.847656 8.910156 1.683594 L 8.886719 1.707031 L 8.121094 2.453125 L 7.355469 3.214844 L 7.179688 3.390625 L 5.828125 4.714844 L 4.042969 6.472656 L 2.007812 8.488281 C 1.398438 9.085938 1.054688 9.902344 1.054688 10.753906 C 1.054688 11.605469 1.398438 12.421875 2.007812 13.019531 C 3.277344 14.269531 5.320312 14.269531 6.589844 13.019531 L 8.632812 11.003906 L 13.46875 6.226562 L 14.230469 5.46875 L 14.996094 6.226562 L 14.230469 6.980469 L 7.351562 13.761719 Z M 7.355469 13.773438 "/>
</g>
</svg>
