<?xml version="1.0" encoding="UTF-8"?>
<svg xmlns="http://www.w3.org/2000/svg" xmlns:xlink="http://www.w3.org/1999/xlink" width="38pt" height="32pt" viewBox="0 0 38 32" version="1.1">
<g id="surface1">
<path style=" stroke:none;fill-rule:nonzero;fill:#81ef59;fill-opacity:1;" d="M 37.585938 27.996094 L 21.175781 1.230469 C 20.707031 0.464844 19.886719 0 19 0 C 18.113281 0 17.292969 0.464844 16.824219 1.230469 L 0.414062 27.996094 C -0.078125 28.804688 -0.105469 29.820312 0.34375 30.652344 C 0.796875 31.488281 1.660156 32.003906 2.59375 32.003906 L 35.40625 32.003906 C 36.339844 32.003906 37.203125 31.488281 37.652344 30.652344 C 38.105469 29.820312 38.078125 28.804688 37.585938 27.996094 Z M 36.328125 29.90625 C 36.144531 30.25 35.792969 30.460938 35.40625 30.457031 L 2.59375 30.457031 C 2.210938 30.457031 1.855469 30.246094 1.671875 29.90625 C 1.484375 29.5625 1.496094 29.144531 1.699219 28.8125 L 18.105469 2.046875 C 18.296875 1.734375 18.636719 1.542969 19 1.542969 C 19.363281 1.542969 19.703125 1.734375 19.894531 2.046875 L 36.300781 28.8125 C 36.507812 29.144531 36.519531 29.5625 36.328125 29.90625 Z M 36.328125 29.90625 "/>
<path style=" stroke:none;fill-rule:nonzero;fill:#05a541;fill-opacity:1;" d="M 23.675781 17.296875 C 23.546875 17.042969 23.289062 16.882812 23.011719 16.882812 L 20.558594 16.882812 L 22.226562 10.734375 C 22.289062 10.503906 22.242188 10.253906 22.101562 10.0625 C 21.957031 9.871094 21.734375 9.757812 21.496094 9.757812 L 17.441406 9.757812 C 17.101562 9.757812 16.804688 9.988281 16.714844 10.324219 L 14.039062 20.175781 C 13.972656 20.410156 14.019531 20.65625 14.164062 20.847656 C 14.308594 21.039062 14.53125 21.152344 14.765625 21.152344 L 17.21875 21.152344 L 15.550781 27.300781 C 15.453125 27.664062 15.625 28.042969 15.957031 28.203125 C 16.292969 28.363281 16.691406 28.253906 16.902344 27.949219 L 23.632812 18.09375 C 23.792969 17.859375 23.808594 17.550781 23.675781 17.296875 Z M 18.183594 23.359375 L 18.9375 20.585938 C 19 20.351562 18.953125 20.105469 18.8125 19.914062 C 18.667969 19.722656 18.445312 19.609375 18.207031 19.609375 L 15.757812 19.609375 L 18.015625 11.296875 L 20.503906 11.296875 L 18.832031 17.445312 C 18.769531 17.675781 18.816406 17.925781 18.960938 18.117188 C 19.101562 18.308594 19.324219 18.421875 19.5625 18.421875 L 21.558594 18.421875 Z M 18.183594 23.359375 "/>
<path style=" stroke:none;fill-rule:nonzero;fill:#05a541;fill-opacity:1;" d="M 33.96875 28.097656 L 28.449219 28.097656 C 28.042969 28.113281 27.71875 28.453125 27.71875 28.871094 C 27.71875 29.285156 28.042969 29.628906 28.449219 29.640625 L 33.96875 29.640625 C 34.246094 29.648438 34.503906 29.503906 34.644531 29.261719 C 34.785156 29.019531 34.785156 28.71875 34.644531 28.476562 C 34.503906 28.234375 34.246094 28.089844 33.96875 28.097656 Z M 33.96875 28.097656 "/>
<path style=" stroke:none;fill-rule:nonzero;fill:#05a541;fill-opacity:1;" d="M 26.257812 28.097656 L 25.652344 28.097656 C 25.378906 28.089844 25.117188 28.234375 24.980469 28.476562 C 24.839844 28.71875 24.839844 29.019531 24.980469 29.261719 C 25.117188 29.503906 25.378906 29.648438 25.652344 29.640625 L 26.257812 29.640625 C 26.535156 29.648438 26.792969 29.503906 26.933594 29.261719 C 27.074219 29.019531 27.074219 28.71875 26.933594 28.476562 C 26.792969 28.234375 26.535156 28.089844 26.257812 28.097656 Z M 26.257812 28.097656 "/>
</g>
</svg>
