<?xml version="1.0" encoding="UTF-8"?>
<svg xmlns="http://www.w3.org/2000/svg" xmlns:xlink="http://www.w3.org/1999/xlink" width="28pt" height="29pt" viewBox="0 0 28 29" version="1.1">
<g id="surface1">
<path style=" stroke:none;fill-rule:nonzero;fill:rgb(1.960784%,64.705882%,25.490196%);fill-opacity:1;" d="M 27.652344 22.558594 L 23.839844 18.9375 L 26.046875 16.847656 C 26.484375 16.429688 26.484375 15.757812 26.046875 15.339844 C 25.605469 14.925781 24.890625 14.925781 24.453125 15.339844 L 24.109375 15.667969 L 21.011719 12.734375 C 19.761719 11.550781 18.097656 10.839844 16.332031 10.746094 C 15.921875 10.707031 15.515625 10.878906 15.285156 11.203125 C 15.050781 11.527344 15.027344 11.949219 15.21875 12.296875 C 15.40625 12.644531 15.785156 12.863281 16.203125 12.867188 C 17.417969 12.933594 18.558594 13.417969 19.417969 14.238281 L 22.515625 17.167969 L 15.503906 23.816406 L 12.40625 20.878906 C 10.472656 19.046875 10.472656 16.070312 12.40625 14.238281 C 12.84375 13.820312 12.84375 13.144531 12.40625 12.730469 L 8.984375 9.488281 C 8.453125 8.980469 8.453125 8.167969 8.984375 7.660156 L 10.902344 5.84375 C 12.3125 4.511719 12.3125 2.34375 10.902344 1.003906 C 9.488281 -0.328125 7.203125 -0.328125 5.792969 1.003906 L 3.875 2.820312 C 3.34375 3.328125 2.480469 3.328125 1.941406 2.820312 C 1.503906 2.40625 0.792969 2.40625 0.355469 2.820312 C -0.0898438 3.238281 -0.0898438 3.914062 0.355469 4.332031 C 1.765625 5.660156 4.046875 5.660156 5.464844 4.332031 L 7.378906 2.511719 C 7.910156 2.007812 8.777344 2.007812 9.308594 2.511719 C 9.839844 3.011719 9.84375 3.832031 9.308594 4.335938 L 7.390625 6.152344 C 5.980469 7.492188 5.980469 9.660156 7.390625 10.992188 L 10.082031 13.542969 C 8.003906 16.261719 8.316406 20.007812 10.824219 22.386719 L 13.921875 25.316406 L 13.578125 25.648438 C 13.28125 25.910156 13.160156 26.308594 13.265625 26.683594 C 13.363281 27.054688 13.671875 27.347656 14.066406 27.445312 C 14.464844 27.542969 14.878906 27.433594 15.160156 27.15625 L 17.371094 25.066406 L 21.191406 28.6875 C 21.472656 28.964844 21.894531 29.078125 22.285156 28.980469 C 22.683594 28.882812 22.988281 28.589844 23.089844 28.210938 C 23.191406 27.839844 23.074219 27.445312 22.78125 27.175781 L 18.953125 23.558594 L 22.238281 20.449219 L 26.0625 24.066406 C 26.347656 24.34375 26.765625 24.457031 27.160156 24.359375 C 27.550781 24.261719 27.859375 23.96875 27.964844 23.59375 C 28.066406 23.222656 27.949219 22.824219 27.652344 22.558594 Z M 27.652344 22.558594 "/>
</g>
</svg>
