<?xml version="1.0" encoding="UTF-8"?>
<svg xmlns="http://www.w3.org/2000/svg" xmlns:xlink="http://www.w3.org/1999/xlink" width="38pt" height="35pt" viewBox="0 0 38 35" version="1.1">
<g id="surface1">
<path style=" stroke:none;fill-rule:nonzero;fill:#05a541;fill-opacity:1;" d="M 19 16.265625 C 17.636719 16.265625 16.53125 17.375 16.53125 18.742188 C 16.53125 20.109375 17.636719 21.21875 19 21.21875 C 20.363281 21.21875 21.46875 20.109375 21.46875 18.742188 C 21.46875 17.375 20.363281 16.265625 19 16.265625 Z M 19 19.980469 C 18.316406 19.980469 17.765625 19.425781 17.765625 18.742188 C 17.765625 18.058594 18.316406 17.503906 19 17.503906 C 19.683594 17.503906 20.234375 18.058594 20.234375 18.742188 C 20.234375 19.425781 19.683594 19.980469 19 19.980469 Z M 19 19.980469 "/>
<path style=" stroke:none;fill-rule:nonzero;fill:#81ef59;fill-opacity:1;" d="M 19 13.167969 C 16.496094 13.171875 14.304688 14.855469 13.648438 17.277344 C 12.988281 19.703125 14.027344 22.265625 16.183594 23.542969 C 16.476562 23.71875 16.855469 23.621094 17.03125 23.328125 C 17.113281 23.183594 17.136719 23.015625 17.09375 22.855469 C 17.054688 22.695312 16.949219 22.5625 16.808594 22.476562 C 15.125 21.488281 14.3125 19.488281 14.824219 17.601562 C 15.335938 15.710938 17.046875 14.402344 18.996094 14.402344 C 20.949219 14.402344 22.65625 15.710938 23.167969 17.601562 C 23.679688 19.488281 22.867188 21.488281 21.1875 22.476562 C 20.894531 22.652344 20.796875 23.03125 20.96875 23.328125 C 21.082031 23.515625 21.28125 23.628906 21.5 23.628906 C 21.613281 23.632812 21.722656 23.601562 21.816406 23.542969 C 23.964844 22.265625 25 19.703125 24.34375 17.28125 C 23.683594 14.863281 21.5 13.179688 19 13.171875 Z M 19 13.167969 "/>
<path style=" stroke:none;fill-rule:nonzero;fill:#05a541;fill-opacity:1;" d="M 19 0.15625 C 10.640625 0.148438 3.3125 5.757812 1.113281 13.847656 C -1.089844 21.9375 2.378906 30.503906 9.582031 34.757812 C 9.679688 34.8125 9.785156 34.84375 9.898438 34.84375 C 10.171875 34.839844 10.410156 34.652344 10.480469 34.382812 C 10.550781 34.117188 10.4375 33.832031 10.199219 33.691406 C 3.480469 29.722656 0.242188 21.730469 2.292969 14.183594 C 4.34375 6.632812 11.175781 1.394531 18.976562 1.394531 C 26.773438 1.394531 33.605469 6.632812 35.65625 14.183594 C 37.707031 21.730469 34.46875 29.722656 27.75 33.691406 C 27.457031 33.863281 27.359375 34.242188 27.527344 34.535156 C 27.609375 34.675781 27.746094 34.78125 27.90625 34.824219 C 28.0625 34.863281 28.234375 34.839844 28.375 34.757812 C 35.570312 30.507812 39.039062 21.953125 36.851562 13.867188 C 34.660156 5.78125 27.351562 0.167969 19 0.15625 Z M 19 0.15625 "/>
<path style=" stroke:none;fill-rule:nonzero;fill:#81ef59;fill-opacity:1;" d="M 33.203125 18.742188 C 33.207031 11.839844 28.28125 5.929688 21.511719 4.710938 C 14.738281 3.492188 8.070312 7.3125 5.679688 13.785156 C 3.292969 20.253906 5.867188 27.515625 11.792969 31.015625 C 11.890625 31.070312 11.996094 31.101562 12.109375 31.101562 C 12.328125 31.101562 12.527344 30.988281 12.640625 30.800781 C 12.8125 30.503906 12.714844 30.125 12.421875 29.949219 C 7.382812 26.972656 4.949219 20.980469 6.488281 15.316406 C 8.023438 9.65625 13.148438 5.726562 19 5.726562 C 24.851562 5.726562 29.976562 9.65625 31.511719 15.316406 C 33.050781 20.980469 30.617188 26.972656 25.578125 29.949219 C 25.320312 30.136719 25.246094 30.488281 25.40625 30.761719 C 25.566406 31.039062 25.90625 31.148438 26.195312 31.015625 C 30.523438 28.449219 33.183594 23.785156 33.203125 18.742188 Z M 33.203125 18.742188 "/>
<path style=" stroke:none;fill-rule:nonzero;fill:#05a541;fill-opacity:1;" d="M 28.878906 18.742188 C 28.894531 13.9375 25.472656 9.816406 20.757812 8.960938 C 16.046875 8.105469 11.402344 10.765625 9.734375 15.269531 C 8.070312 19.773438 9.863281 24.828125 13.992188 27.261719 C 14.183594 27.402344 14.433594 27.417969 14.644531 27.308594 C 14.851562 27.199219 14.980469 26.976562 14.972656 26.742188 C 14.964844 26.503906 14.824219 26.292969 14.609375 26.195312 C 11.246094 24.214844 9.621094 20.21875 10.644531 16.441406 C 11.667969 12.664062 15.085938 10.042969 18.988281 10.042969 C 22.890625 10.042969 26.308594 12.664062 27.332031 16.441406 C 28.355469 20.21875 26.730469 24.214844 23.367188 26.195312 C 23.226562 26.28125 23.125 26.421875 23.085938 26.585938 C 23.050781 26.746094 23.078125 26.917969 23.167969 27.058594 C 23.28125 27.246094 23.480469 27.359375 23.699219 27.359375 C 23.808594 27.359375 23.917969 27.332031 24.015625 27.273438 C 27.019531 25.488281 28.867188 22.246094 28.878906 18.742188 Z M 28.878906 18.742188 "/>
</g>
</svg>
