<?xml version="1.0" encoding="UTF-8"?>
<svg xmlns="http://www.w3.org/2000/svg" xmlns:xlink="http://www.w3.org/1999/xlink" width="36pt" height="37pt" viewBox="0 0 36 37" version="1.1">
<g id="surface1">
<path style=" stroke:none;fill-rule:nonzero;fill:#05a541;fill-opacity:1;" d="M 34.695312 6.066406 C 34.652344 5.90625 34.546875 5.773438 34.402344 5.691406 C 34.257812 5.609375 34.085938 5.585938 33.925781 5.628906 C 23.179688 8.386719 18.875 1.5 18.328125 0.527344 C 18.3125 0.472656 18.289062 0.421875 18.257812 0.375 C 18.132812 0.207031 17.933594 0.105469 17.71875 0.105469 C 17.5 0.105469 17.300781 0.207031 17.175781 0.375 C 17.140625 0.433594 17.113281 0.496094 17.097656 0.5625 C 16.476562 1.644531 12.148438 8.351562 1.519531 5.625 C 1.183594 5.539062 0.839844 5.734375 0.75 6.0625 C 0.691406 6.277344 -4.792969 27.511719 17.445312 36.824219 C 17.535156 36.867188 17.636719 36.890625 17.734375 36.890625 C 17.859375 36.890625 17.976562 36.855469 18.078125 36.789062 C 40.226562 27.460938 34.753906 6.277344 34.695312 6.066406 Z M 17.71875 35.601562 C -1.480469 27.425781 1.085938 10.414062 1.828125 6.96875 C 11.34375 9.132812 16.167969 4.015625 17.722656 1.863281 C 19.277344 4.011719 24.101562 9.132812 33.617188 6.960938 C 34.359375 10.410156 36.925781 27.425781 17.722656 35.601562 Z M 17.71875 35.601562 "/>
<path style=" stroke:none;fill-rule:nonzero;fill:#81ef59;fill-opacity:1;" d="M 18.519531 25.796875 C 18.519531 25.375 18.167969 25.035156 17.734375 25.035156 L 11.460938 25.035156 C 11.027344 25.035156 10.675781 25.375 10.675781 25.796875 C 10.675781 26.21875 11.027344 26.558594 11.460938 26.558594 L 17.734375 26.558594 C 18.167969 26.558594 18.519531 26.21875 18.519531 25.796875 Z M 18.519531 25.796875 "/>
<path style=" stroke:none;fill-rule:nonzero;fill:#81ef59;fill-opacity:1;" d="M 20.871094 26.558594 L 24.007812 26.558594 C 24.441406 26.558594 24.789062 26.21875 24.789062 25.796875 C 24.789062 25.375 24.441406 25.035156 24.007812 25.035156 L 20.871094 25.035156 C 20.4375 25.035156 20.085938 25.375 20.085938 25.796875 C 20.085938 26.21875 20.4375 26.558594 20.871094 26.558594 Z M 20.871094 26.558594 "/>
<path style=" stroke:none;fill-rule:nonzero;fill:#81ef59;fill-opacity:1;" d="M 4.507812 30.757812 L 3.246094 30.757812 L 3.246094 29.53125 C 3.253906 29.308594 3.136719 29.097656 2.9375 28.980469 C 2.742188 28.867188 2.496094 28.867188 2.296875 28.980469 C 2.097656 29.097656 1.980469 29.308594 1.988281 29.53125 L 1.988281 30.757812 L 0.730469 30.757812 C 0.5 30.75 0.28125 30.867188 0.164062 31.058594 C 0.046875 31.25 0.046875 31.492188 0.164062 31.683594 C 0.28125 31.878906 0.5 31.992188 0.730469 31.984375 L 1.988281 31.984375 L 1.988281 33.210938 C 1.976562 33.4375 2.09375 33.648438 2.292969 33.765625 C 2.492188 33.882812 2.742188 33.882812 2.941406 33.765625 C 3.140625 33.648438 3.257812 33.4375 3.246094 33.210938 L 3.246094 31.988281 L 4.507812 31.988281 C 4.847656 31.976562 5.117188 31.703125 5.117188 31.375 C 5.117188 31.042969 4.847656 30.773438 4.507812 30.761719 Z M 4.507812 30.757812 "/>
<path style=" stroke:none;fill-rule:nonzero;fill:#81ef59;fill-opacity:1;" d="M 35.371094 33.824219 L 34.109375 33.824219 L 34.109375 32.597656 C 34.109375 32.257812 33.828125 31.984375 33.480469 31.984375 C 33.132812 31.984375 32.851562 32.257812 32.851562 32.597656 L 32.851562 33.824219 L 31.589844 33.824219 C 31.242188 33.824219 30.960938 34.097656 30.960938 34.4375 C 30.960938 34.777344 31.242188 35.050781 31.589844 35.050781 L 32.851562 35.050781 L 32.851562 36.277344 C 32.851562 36.617188 33.132812 36.890625 33.480469 36.890625 C 33.828125 36.890625 34.109375 36.617188 34.109375 36.277344 L 34.109375 35.050781 L 35.371094 35.050781 C 35.71875 35.050781 36 34.777344 36 34.4375 C 36 34.097656 35.71875 33.824219 35.371094 33.824219 Z M 35.371094 33.824219 "/>
<path style=" stroke:none;fill-rule:nonzero;fill:#81ef59;fill-opacity:1;" d="M 30.332031 2.542969 L 30.960938 2.542969 L 30.960938 3.15625 C 30.960938 3.492188 31.242188 3.769531 31.589844 3.769531 C 31.9375 3.769531 32.222656 3.492188 32.222656 3.15625 L 32.222656 2.542969 L 32.851562 2.542969 C 33.191406 2.53125 33.460938 2.257812 33.460938 1.929688 C 33.460938 1.597656 33.191406 1.324219 32.851562 1.316406 L 32.222656 1.316406 L 32.222656 0.703125 C 32.222656 0.363281 31.9375 0.0898438 31.589844 0.0898438 C 31.242188 0.0898438 30.960938 0.363281 30.960938 0.703125 L 30.960938 1.316406 L 30.332031 1.316406 C 29.992188 1.324219 29.722656 1.597656 29.722656 1.929688 C 29.722656 2.257812 29.992188 2.53125 30.332031 2.542969 Z M 30.332031 2.542969 "/>
<path style=" stroke:none;fill-rule:nonzero;fill:#81ef59;fill-opacity:1;" d="M 24.558594 11.515625 C 24.253906 11.21875 23.757812 11.21875 23.453125 11.515625 L 13.816406 20.902344 L 12.019531 19.148438 C 11.707031 18.875 11.234375 18.886719 10.9375 19.175781 C 10.640625 19.464844 10.628906 19.925781 10.910156 20.226562 L 13.261719 22.519531 C 13.566406 22.816406 14.0625 22.816406 14.371094 22.519531 L 24.558594 12.59375 C 24.867188 12.296875 24.867188 11.8125 24.558594 11.515625 Z M 24.558594 11.515625 "/>
</g>
</svg>
