<?xml version="1.0" encoding="UTF-8"?>
<svg xmlns="http://www.w3.org/2000/svg" xmlns:xlink="http://www.w3.org/1999/xlink" width="24px" height="30px" viewBox="0 0 24 30" version="1.1">
<g id="surface1">
<path style=" stroke:none;fill-rule:nonzero;fill:#81ef59;fill-opacity:1;" d="M 21.324219 11.058594 L 21.316406 11.046875 L 12.726562 0.324219 C 12.5625 0.121094 12.308594 0 12.042969 0 C 11.773438 0 11.523438 0.117188 11.355469 0.324219 L 2.726562 10.988281 C 2.710938 11.007812 2.695312 11.027344 2.683594 11.046875 C 0.949219 13.121094 0.00390625 15.707031 0.00390625 18.371094 C 0.00390625 24.785156 5.382812 30.003906 12.003906 30.003906 C 18.621094 30.003906 24.003906 24.785156 24.003906 18.371094 C 24 15.707031 23.054688 13.128906 21.324219 11.058594 Z M 12.003906 28.316406 C 8.03125 28.316406 4.417969 26.09375 2.722656 22.613281 C 1.03125 19.128906 1.5625 15.011719 4.089844 12.042969 C 4.113281 12.015625 4.136719 11.984375 4.15625 11.953125 L 12.035156 2.210938 L 19.925781 12.054688 C 19.933594 12.070312 19.945312 12.082031 19.957031 12.097656 C 22.457031 15.070312 22.964844 19.175781 21.265625 22.640625 C 19.566406 26.105469 15.960938 28.316406 12.003906 28.316406 Z M 12.003906 28.316406 "/>
<path style=" stroke:none;fill-rule:nonzero;fill:#05a541;fill-opacity:1;" d="M 9.367188 20.960938 C 9.183594 20.957031 9.035156 20.816406 9.03125 20.636719 L 9.03125 17.390625 L 7.394531 20.046875 C 7.332031 20.128906 7.238281 20.175781 7.132812 20.175781 C 7.027344 20.175781 6.925781 20.128906 6.859375 20.046875 L 5.21875 17.390625 L 5.21875 20.636719 C 5.21875 20.816406 5.070312 20.960938 4.886719 20.960938 C 4.707031 20.957031 4.558594 20.816406 4.554688 20.636719 L 4.554688 16.210938 C 4.554688 16.070312 4.648438 15.949219 4.785156 15.90625 C 4.921875 15.859375 5.074219 15.90625 5.160156 16.019531 L 7.132812 19.242188 L 9.097656 16.019531 C 9.1875 15.90625 9.339844 15.859375 9.476562 15.902344 C 9.613281 15.949219 9.703125 16.074219 9.703125 16.210938 L 9.703125 20.636719 C 9.703125 20.816406 9.554688 20.960938 9.367188 20.960938 Z M 9.367188 20.960938 "/>
<path style=" stroke:none;fill-rule:nonzero;fill:#05a541;fill-opacity:1;" d="M 14.855469 20.933594 C 14.683594 21.003906 14.488281 20.933594 14.410156 20.773438 L 13.949219 19.78125 C 13.53125 19.679688 13.09375 19.671875 12.667969 19.765625 C 12.316406 19.832031 11.980469 19.960938 11.671875 20.144531 C 11.339844 20.34375 11.027344 20.582031 10.742188 20.84375 C 10.617188 20.96875 10.453125 21.007812 10.308594 20.921875 C 10.167969 20.835938 10.183594 20.652344 10.25 20.5 L 12.351562 16.089844 C 12.40625 15.976562 12.527344 15.902344 12.65625 15.902344 C 12.785156 15.902344 12.902344 15.976562 12.957031 16.089844 L 15.019531 20.503906 C 15.09375 20.667969 15.019531 20.859375 14.855469 20.933594 Z M 12.648438 16.996094 L 11.375 19.628906 C 11.746094 19.425781 12.148438 19.28125 12.5625 19.191406 C 12.921875 19.117188 13.289062 19.097656 13.65625 19.128906 Z M 12.648438 16.996094 "/>
<path style=" stroke:none;fill-rule:nonzero;fill:#05a541;fill-opacity:1;" d="M 19.449219 20.902344 C 19.296875 20.996094 19.097656 20.964844 18.984375 20.828125 L 17.570312 18.925781 L 16.148438 20.832031 C 16.035156 20.972656 15.832031 21.003906 15.683594 20.902344 C 15.609375 20.855469 15.5625 20.777344 15.546875 20.691406 C 15.53125 20.609375 15.554688 20.519531 15.609375 20.453125 L 17.160156 18.371094 L 15.699219 16.417969 C 15.644531 16.347656 15.621094 16.261719 15.632812 16.175781 C 15.648438 16.089844 15.695312 16.015625 15.769531 15.964844 C 15.917969 15.863281 16.125 15.894531 16.234375 16.035156 L 17.570312 17.828125 L 18.898438 16.039062 C 18.964844 15.941406 19.082031 15.890625 19.203125 15.902344 C 19.324219 15.914062 19.425781 15.988281 19.476562 16.09375 C 19.523438 16.199219 19.507812 16.324219 19.433594 16.417969 L 17.976562 18.371094 L 19.523438 20.449219 C 19.628906 20.59375 19.59375 20.792969 19.449219 20.902344 Z M 19.449219 20.902344 "/>
</g>
</svg>
