<?xml version="1.0" encoding="UTF-8"?>
<svg xmlns="http://www.w3.org/2000/svg" xmlns:xlink="http://www.w3.org/1999/xlink" width="44px" height="25px" viewBox="0 0 44 25" version="1.1">
<g id="surface1">
<path style=" stroke:none;fill-rule:nonzero;fill:#05a541;fill-opacity:1;" d="M 0 4.535156 C 0 4.949219 0.328125 5.28125 0.734375 5.28125 L 7.03125 5.28125 L 7.03125 7.828125 L 6.207031 7.828125 C 5.800781 7.828125 5.472656 8.160156 5.472656 8.574219 C 5.472656 8.984375 5.800781 9.320312 6.207031 9.320312 L 7.03125 9.320312 L 7.03125 11.871094 L 2.292969 11.871094 C 1.886719 11.871094 1.558594 12.207031 1.558594 12.617188 C 1.558594 13.03125 1.886719 13.363281 2.292969 13.363281 L 7.03125 13.363281 L 7.03125 20.175781 C 7.03125 20.585938 7.191406 20.976562 7.476562 21.269531 C 7.761719 21.558594 8.148438 21.722656 8.550781 21.722656 L 13.082031 21.722656 C 13.4375 23.621094 15.066406 24.992188 16.964844 24.992188 C 18.863281 24.992188 20.492188 23.621094 20.847656 21.722656 L 30.441406 21.722656 C 30.597656 21.71875 30.75 21.691406 30.898438 21.640625 C 30.996094 21.691406 31.105469 21.71875 31.214844 21.722656 L 33.355469 21.722656 C 33.710938 23.621094 35.339844 24.992188 37.238281 24.992188 C 39.136719 24.992188 40.765625 23.621094 41.121094 21.722656 L 43.265625 21.722656 C 43.671875 21.722656 44 21.386719 44 20.976562 L 44 12.617188 C 44 12.207031 43.671875 11.871094 43.265625 11.871094 L 41.476562 11.871094 L 38.5 6.582031 C 38.367188 6.347656 38.121094 6.207031 37.859375 6.207031 L 31.953125 6.207031 L 31.953125 1.550781 C 31.953125 1.140625 31.792969 0.746094 31.507812 0.457031 C 31.222656 0.167969 30.835938 0.00390625 30.433594 0.0078125 L 8.550781 0.0078125 C 8.148438 0.00390625 7.761719 0.167969 7.476562 0.457031 C 7.191406 0.746094 7.03125 1.140625 7.03125 1.550781 L 7.03125 3.789062 L 0.734375 3.789062 C 0.328125 3.789062 0 4.125 0 4.535156 Z M 39.785156 11.871094 L 31.953125 11.871094 L 31.953125 7.730469 L 37.4375 7.730469 Z M 34.742188 20.96875 C 34.742188 19.566406 35.859375 18.429688 37.234375 18.429688 C 38.613281 18.429688 39.726562 19.566406 39.726562 20.96875 C 39.726562 22.371094 38.613281 23.507812 37.234375 23.507812 C 35.859375 23.507812 34.742188 22.371094 34.742188 20.96875 Z M 31.949219 20.222656 L 31.949219 13.363281 L 42.535156 13.363281 L 42.535156 20.222656 L 41.125 20.222656 C 40.769531 18.324219 39.140625 16.953125 37.242188 16.953125 C 35.34375 16.953125 33.714844 18.324219 33.359375 20.222656 Z M 14.457031 20.96875 C 14.457031 19.566406 15.574219 18.429688 16.949219 18.429688 C 18.328125 18.429688 19.445312 19.566406 19.445312 20.96875 C 19.445312 22.371094 18.328125 23.507812 16.949219 23.507812 C 15.574219 23.503906 14.460938 22.367188 14.460938 20.96875 Z M 8.492188 1.582031 L 30.425781 1.527344 L 30.476562 20.183594 L 20.839844 20.230469 C 20.488281 18.332031 18.855469 16.960938 16.957031 16.960938 C 15.058594 16.960938 13.429688 18.332031 13.074219 20.230469 L 8.535156 20.230469 L 8.535156 13.371094 L 13.566406 13.371094 C 13.972656 13.371094 14.300781 13.039062 14.300781 12.625 C 14.300781 12.214844 13.972656 11.878906 13.566406 11.878906 L 8.523438 11.878906 L 8.523438 9.328125 L 17.480469 9.328125 C 17.882812 9.328125 18.210938 8.992188 18.210938 8.582031 C 18.210938 8.167969 17.882812 7.835938 17.480469 7.835938 L 8.507812 7.835938 L 8.507812 5.316406 L 11.996094 5.316406 C 12.402344 5.316406 12.730469 4.980469 12.730469 4.570312 C 12.730469 4.15625 12.402344 3.824219 11.996094 3.824219 L 8.492188 3.824219 Z M 8.492188 1.582031 "/>
</g>
</svg>
