<?xml version="1.0" encoding="UTF-8"?>
<svg xmlns="http://www.w3.org/2000/svg" xmlns:xlink="http://www.w3.org/1999/xlink" width="36px" height="27px" viewBox="0 0 36 27" version="1.1">
<g id="surface1">
<path style=" stroke:none;fill-rule:nonzero;fill:#05a541;fill-opacity:1;" d="M 35.25 9.75 C 35.449219 9.75 35.640625 9.671875 35.78125 9.53125 C 35.921875 9.390625 36 9.199219 36 9 L 36 3 C 36 1.34375 34.65625 0 33 0 L 3 0 C 1.34375 0 0 1.34375 0 3 L 0 9 C 0 9.199219 0.078125 9.390625 0.21875 9.53125 C 0.359375 9.671875 0.550781 9.75 0.75 9.75 C 2.820312 9.75 4.5 11.429688 4.5 13.5 C 4.5 15.570312 2.820312 17.25 0.75 17.25 C 0.550781 17.25 0.359375 17.328125 0.21875 17.46875 C 0.078125 17.609375 0 17.800781 0 18 L 0 24 C 0 25.65625 1.34375 27 3 27 L 33 27 C 34.65625 27 36 25.65625 36 24 L 36 18 C 36 17.800781 35.921875 17.609375 35.78125 17.46875 C 35.640625 17.328125 35.449219 17.25 35.25 17.25 C 33.179688 17.25 31.5 15.570312 31.5 13.5 C 31.5 11.429688 33.179688 9.75 35.25 9.75 Z M 30 13.5 C 30.003906 16.109375 31.917969 18.320312 34.5 18.695312 L 34.5 24 C 34.5 24.828125 33.828125 25.5 33 25.5 L 3 25.5 C 2.171875 25.5 1.5 24.828125 1.5 24 L 1.5 18.695312 C 4.082031 18.324219 6 16.109375 6 13.5 C 6 10.890625 4.082031 8.675781 1.5 8.304688 L 1.5 3 C 1.5 2.171875 2.171875 1.5 3 1.5 L 33 1.5 C 33.828125 1.5 34.5 2.171875 34.5 3 L 34.5 8.304688 C 31.917969 8.679688 30.003906 10.890625 30 13.5 Z M 30 13.5 "/>
<path style=" stroke:none;fill-rule:nonzero;fill:#05a541;fill-opacity:1;" d="M 9.75 2.8125 C 9.550781 2.8125 9.359375 2.890625 9.21875 3.03125 C 9.078125 3.171875 9 3.363281 9 3.5625 L 9 5.25 C 9.011719 5.65625 9.34375 5.976562 9.75 5.976562 C 10.15625 5.976562 10.488281 5.65625 10.5 5.25 L 10.5 3.5625 C 10.5 3.148438 10.164062 2.8125 9.75 2.8125 Z M 9.75 2.8125 "/>
<path style=" stroke:none;fill-rule:nonzero;fill:#05a541;fill-opacity:1;" d="M 9.75 9 C 9.550781 9 9.359375 9.078125 9.21875 9.21875 C 9.078125 9.359375 9 9.550781 9 9.75 L 9 11.25 C 8.992188 11.523438 9.132812 11.78125 9.367188 11.917969 C 9.605469 12.058594 9.894531 12.058594 10.132812 11.917969 C 10.367188 11.78125 10.507812 11.523438 10.5 11.25 L 10.5 9.75 C 10.5 9.335938 10.164062 9 9.75 9 Z M 9.75 9 "/>
<path style=" stroke:none;fill-rule:nonzero;fill:#05a541;fill-opacity:1;" d="M 9.75 15 C 9.550781 15 9.359375 15.078125 9.21875 15.21875 C 9.078125 15.359375 9 15.550781 9 15.75 L 9 17.25 C 8.992188 17.523438 9.132812 17.78125 9.367188 17.917969 C 9.605469 18.058594 9.894531 18.058594 10.132812 17.917969 C 10.367188 17.78125 10.507812 17.523438 10.5 17.25 L 10.5 15.75 C 10.5 15.335938 10.164062 15 9.75 15 Z M 9.75 15 "/>
<path style=" stroke:none;fill-rule:nonzero;fill:#05a541;fill-opacity:1;" d="M 9.75 21 C 9.335938 21 9 21.335938 9 21.75 L 9 23.25 C 9.011719 23.65625 9.34375 23.976562 9.75 23.976562 C 10.15625 23.976562 10.488281 23.65625 10.5 23.25 L 10.5 21.75 C 10.5 21.335938 10.164062 21 9.75 21 Z M 9.75 21 "/>
<path style=" stroke:none;fill-rule:nonzero;fill:#05a541;fill-opacity:1;" d="M 25.167969 6.125 C 25 6.015625 24.796875 5.976562 24.601562 6.015625 C 24.40625 6.054688 24.234375 6.171875 24.125 6.335938 L 15.125 19.835938 C 14.894531 20.183594 14.988281 20.648438 15.332031 20.878906 C 15.679688 21.105469 16.144531 21.015625 16.375 20.667969 L 25.375 7.167969 C 25.484375 7.003906 25.527344 6.800781 25.488281 6.605469 C 25.449219 6.410156 25.332031 6.238281 25.167969 6.125 Z M 25.167969 6.125 "/>
<path style=" stroke:none;fill-rule:nonzero;fill:#05a541;fill-opacity:1;" d="M 19.5 9.75 C 19.5 7.683594 18.15625 6 16.5 6 C 14.847656 6 13.5 7.683594 13.5 9.75 C 13.5 11.816406 14.84375 13.5 16.5 13.5 C 18.15625 13.5 19.5 11.816406 19.5 9.75 Z M 15 9.75 C 15 8.53125 15.6875 7.5 16.5 7.5 C 17.3125 7.5 18 8.53125 18 9.75 C 18 10.96875 17.3125 12 16.5 12 C 15.6875 12 15 10.96875 15 9.75 Z M 15 9.75 "/>
<path style=" stroke:none;fill-rule:nonzero;fill:#05a541;fill-opacity:1;" d="M 24 13.5 C 22.34375 13.5 21 15.183594 21 17.25 C 21 19.316406 22.34375 21 24 21 C 25.652344 21 27 19.316406 27 17.25 C 27 15.183594 25.652344 13.5 24 13.5 Z M 24 19.5 C 23.1875 19.5 22.5 18.46875 22.5 17.25 C 22.5 16.03125 23.1875 15 24 15 C 24.8125 15 25.5 16.03125 25.5 17.25 C 25.5 18.46875 24.8125 19.5 24 19.5 Z M 24 19.5 "/>
</g>
</svg>
