<?xml version="1.0" encoding="UTF-8"?>
<svg xmlns="http://www.w3.org/2000/svg" xmlns:xlink="http://www.w3.org/1999/xlink" width="40px" height="40px" viewBox="0 0 40 40" version="1.1">
<g id="surface1">
<path style=" stroke:none;fill-rule:nonzero;fill:#05a541;fill-opacity:1;" d="M 37.960938 7.359375 L 27.632812 7.359375 C 25.894531 4.859375 23.042969 3.371094 20 3.367188 L 20 2.039062 C 20 0.933594 19.105469 0.0429688 18.003906 0.0429688 L 2.039062 0.0429688 C 0.933594 0.0429688 0.0429688 0.933594 0.0429688 2.039062 L 0.0429688 10.019531 C 0.0429688 11.125 0.933594 12.015625 2.039062 12.015625 L 3.5 12.015625 L 5.519531 14.4375 C 5.753906 14.722656 6.175781 14.757812 6.457031 14.523438 C 6.484375 14.496094 6.511719 14.46875 6.539062 14.4375 L 8.558594 12.015625 L 10.71875 12.015625 C 10.703125 12.238281 10.683594 12.457031 10.683594 12.683594 L 10.683594 14.011719 C 10.65625 14.351562 10.90625 14.648438 11.246094 14.679688 C 11.308594 14.683594 11.371094 14.679688 11.433594 14.664062 C 11.628906 16.332031 12.21875 17.929688 13.152344 19.320312 C 12.019531 19.242188 11.0625 18.445312 10.773438 17.34375 L 11.355469 17.34375 L 11.355469 16.011719 L 10.023438 16.011719 C 9.65625 16.011719 9.359375 16.308594 9.359375 16.679688 C 9.359375 18.882812 11.144531 20.667969 13.351562 20.667969 L 14.214844 20.667969 C 14.511719 20.992188 14.832031 21.300781 15.167969 21.585938 C 15.226562 21.632812 15.285156 21.667969 15.34375 21.71875 L 15.34375 24.183594 L 9.8125 26.023438 C 9.566406 26.105469 9.390625 26.324219 9.363281 26.582031 L 8.03125 39.222656 C 8.011719 39.414062 8.074219 39.601562 8.199219 39.738281 C 8.328125 39.878906 8.507812 39.960938 8.695312 39.957031 L 31.316406 39.957031 C 31.683594 39.957031 31.980469 39.660156 31.980469 39.292969 C 31.980469 39.269531 31.980469 39.25 31.980469 39.226562 L 30.648438 26.585938 C 30.621094 26.324219 30.4375 26.105469 30.1875 26.027344 L 24.65625 24.179688 L 24.65625 21.710938 C 24.714844 21.664062 24.773438 21.628906 24.832031 21.578125 C 26.375 20.289062 27.519531 18.585938 28.132812 16.671875 L 28.78125 16.671875 L 30.800781 19.09375 C 31.035156 19.375 31.453125 19.414062 31.738281 19.175781 C 31.765625 19.152344 31.792969 19.125 31.820312 19.09375 L 33.835938 16.671875 L 37.960938 16.671875 C 39.066406 16.671875 39.957031 15.78125 39.957031 14.679688 L 39.957031 9.355469 C 39.957031 8.253906 39.066406 7.359375 37.960938 7.359375 Z M 10.90625 10.6875 L 8.246094 10.6875 C 8.046875 10.683594 7.859375 10.773438 7.734375 10.925781 L 6.027344 12.972656 L 4.324219 10.925781 C 4.199219 10.773438 4.011719 10.6875 3.8125 10.6875 L 2.039062 10.6875 C 1.671875 10.6875 1.371094 10.386719 1.371094 10.019531 L 1.371094 2.039062 C 1.371094 1.671875 1.671875 1.371094 2.039062 1.371094 L 18.003906 1.371094 C 18.371094 1.371094 18.667969 1.671875 18.667969 2.039062 L 18.667969 3.472656 C 14.835938 4.03125 11.746094 6.902344 10.90625 10.6875 Z M 15.34375 38.628906 L 9.429688 38.628906 L 10.636719 27.152344 L 15.34375 25.578125 Z M 16.671875 38.628906 L 16.671875 29.792969 L 19.03125 29.007812 L 17.363281 35.128906 C 17.320312 35.285156 17.335938 35.453125 17.410156 35.601562 L 18.925781 38.628906 Z M 16.671875 28.390625 L 16.671875 27.058594 L 18.265625 27.859375 Z M 18.710938 35.230469 L 20 30.511719 L 21.289062 35.230469 L 20 37.804688 Z M 23.328125 38.628906 L 21.074219 38.628906 L 22.589844 35.597656 C 22.664062 35.453125 22.679688 35.285156 22.636719 35.125 L 20.96875 29.007812 L 23.328125 29.792969 Z M 23.328125 28.390625 L 21.734375 27.859375 L 23.328125 27.0625 Z M 23.328125 24.65625 L 23.328125 25.578125 L 20 27.238281 L 16.671875 25.578125 L 16.671875 22.546875 C 18.769531 23.585938 21.230469 23.585938 23.328125 22.546875 Z M 29.363281 27.152344 L 30.570312 38.628906 L 24.65625 38.628906 L 24.65625 25.578125 Z M 23.980469 20.558594 C 21.726562 22.4375 18.46875 22.480469 16.164062 20.667969 L 19.332031 20.667969 L 19.332031 19.339844 L 14.820312 19.339844 C 13.550781 17.800781 12.808594 15.890625 12.710938 13.894531 C 15.371094 12.160156 18.3125 10.898438 21.402344 10.175781 C 21.800781 12.394531 23.734375 14.007812 25.988281 14.011719 L 27.285156 14.011719 C 27.132812 16.554688 25.9375 18.921875 23.980469 20.554688 Z M 25.988281 12.683594 C 24.152344 12.679688 22.664062 11.191406 22.660156 9.355469 C 22.660156 8.988281 22.363281 8.691406 21.996094 8.691406 C 21.945312 8.691406 21.898438 8.695312 21.851562 8.707031 L 21.449219 8.796875 C 18.09375 9.539062 14.898438 10.878906 12.015625 12.753906 L 12.015625 12.683594 C 12.015625 8.273438 15.589844 4.699219 20 4.699219 C 24.410156 4.699219 27.984375 8.273438 27.984375 12.683594 Z M 38.628906 14.679688 C 38.628906 15.046875 38.328125 15.34375 37.960938 15.34375 L 33.527344 15.34375 C 33.328125 15.34375 33.140625 15.429688 33.015625 15.582031 L 31.308594 17.628906 L 29.605469 15.582031 C 29.480469 15.429688 29.292969 15.34375 29.09375 15.34375 L 28.460938 15.34375 C 28.542969 14.902344 28.59375 14.457031 28.617188 14.011719 L 28.648438 14.011719 C 29.015625 14.011719 29.316406 13.714844 29.316406 13.347656 L 29.316406 12.683594 C 29.3125 11.300781 29 9.9375 28.398438 8.691406 L 37.964844 8.691406 C 38.332031 8.691406 38.628906 8.988281 38.628906 9.355469 Z M 38.628906 14.679688 "/>
</g>
</svg>
