<?xml version="1.0" encoding="UTF-8"?>
<svg xmlns="http://www.w3.org/2000/svg" xmlns:xlink="http://www.w3.org/1999/xlink" width="32px" height="32px" viewBox="0 0 32 32" version="1.1">
<g id="surface1">
<path style=" stroke:none;fill-rule:nonzero;fill:#05a541;fill-opacity:1;" d="M 31.160156 24.683594 L 29.917969 23.855469 C 32.71875 18.925781 32.6875 12.878906 29.832031 7.976562 C 26.980469 3.074219 21.734375 0.0625 16.0625 0.0664062 C 15.777344 0.078125 15.546875 0.3125 15.546875 0.601562 C 15.546875 0.886719 15.777344 1.125 16.0625 1.132812 C 21.339844 1.128906 26.226562 3.925781 28.890625 8.480469 C 31.558594 13.035156 31.609375 18.664062 29.027344 23.265625 L 24.683594 20.367188 C 23.863281 19.824219 22.761719 20.003906 22.152344 20.777344 L 20.265625 23.203125 C 20.023438 23.523438 19.582031 23.617188 19.230469 23.421875 L 18.871094 23.222656 C 17.683594 22.574219 16.203125 21.769531 13.21875 18.785156 C 10.238281 15.804688 9.429688 14.320312 8.777344 13.132812 L 8.582031 12.777344 C 8.386719 12.425781 8.476562 11.980469 8.796875 11.738281 L 11.21875 9.851562 C 11.996094 9.242188 12.175781 8.140625 11.632812 7.320312 L 7.3125 0.839844 C 6.753906 0.00390625 5.640625 -0.246094 4.777344 0.269531 L 2.070312 1.894531 C 1.21875 2.394531 0.59375 3.207031 0.328125 4.15625 C -0.648438 7.710938 0.0859375 13.84375 9.121094 22.878906 C 13.058594 26.816406 16.4375 29.171875 19.300781 30.503906 C 14.898438 31.5 10.28125 30.433594 6.757812 27.609375 C 3.234375 24.789062 1.191406 20.511719 1.203125 16 C 1.191406 15.710938 0.957031 15.484375 0.667969 15.484375 C 0.378906 15.484375 0.144531 15.710938 0.136719 16 C 0.144531 24.792969 7.269531 31.921875 16.0625 31.933594 C 17.710938 31.933594 19.347656 31.675781 20.917969 31.167969 C 22.332031 31.695312 23.824219 31.976562 25.335938 31.996094 C 26.179688 32 27.023438 31.890625 27.839844 31.667969 C 28.792969 31.402344 29.601562 30.777344 30.101562 29.925781 L 31.730469 27.21875 C 32.246094 26.359375 31.996094 25.242188 31.160156 24.683594 Z M 30.8125 26.671875 L 29.1875 29.382812 C 28.828125 29.996094 28.246094 30.449219 27.558594 30.644531 C 26.007812 31.070312 23.90625 31.125 21.207031 30.152344 C 21.164062 30.128906 21.117188 30.109375 21.070312 30.097656 C 18.085938 28.988281 14.378906 26.625 9.875 22.121094 C 1.203125 13.453125 0.457031 7.722656 1.355469 4.4375 C 1.550781 3.753906 2.003906 3.171875 2.617188 2.8125 L 5.328125 1.1875 C 5.703125 0.964844 6.1875 1.074219 6.425781 1.4375 L 8.773438 4.957031 L 10.742188 7.910156 C 10.976562 8.265625 10.902344 8.746094 10.566406 9.007812 L 8.140625 10.894531 C 7.402344 11.460938 7.191406 12.480469 7.644531 13.289062 L 7.839844 13.640625 C 8.519531 14.890625 9.367188 16.445312 12.460938 19.539062 C 15.558594 22.628906 17.109375 23.476562 18.359375 24.164062 L 18.710938 24.355469 C 19.519531 24.808594 20.542969 24.597656 21.105469 23.859375 L 22.988281 21.433594 C 23.253906 21.097656 23.730469 21.023438 24.085938 21.257812 L 30.5625 25.574219 C 30.929688 25.816406 31.039062 26.300781 30.8125 26.671875 Z M 30.8125 26.671875 "/>
</g>
</svg>
