<?xml version="1.0" encoding="UTF-8"?>
<svg xmlns="http://www.w3.org/2000/svg" xmlns:xlink="http://www.w3.org/1999/xlink" width="21px" height="29px" viewBox="0 0 21 29" version="1.1">
<g id="surface1">
<path style=" stroke:none;fill-rule:nonzero;fill:#fff;fill-opacity:1;" d="M 10.5 0 C 4.71875 0 0.0117188 4.652344 0.0117188 10.371094 L 0.0117188 18.628906 C 0.0117188 24.347656 4.71875 29 10.5 29 C 16.28125 29 20.988281 24.363281 20.988281 18.660156 L 20.988281 10.371094 C 20.988281 4.652344 16.28125 0 10.5 0 Z M 19.015625 18.660156 C 19.015625 23.304688 15.195312 27.078125 10.5 27.078125 C 5.804688 27.078125 1.984375 23.289062 1.984375 18.628906 L 1.984375 10.371094 C 1.984375 5.710938 5.804688 1.921875 10.5 1.921875 C 15.195312 1.921875 19.015625 5.710938 19.015625 10.371094 Z M 19.015625 18.660156 "/>
<path style=" stroke:none;fill-rule:nonzero;fill:#fff;fill-opacity:1;" d="M 10.5 7.9375 C 9.953125 7.9375 9.511719 8.367188 9.511719 8.898438 L 9.511719 12.257812 C 9.484375 12.617188 9.664062 12.964844 9.980469 13.152344 C 10.296875 13.339844 10.695312 13.339844 11.011719 13.152344 C 11.328125 12.964844 11.511719 12.617188 11.484375 12.257812 L 11.484375 8.898438 C 11.480469 8.371094 11.042969 7.941406 10.5 7.9375 Z M 10.5 7.9375 "/>
</g>
</svg>
